{
    "src/addons/apathy/ActLong/addon.json": "a83df3a52105a5492ec9d423d29cd29db91fc3b38f0bbbcdff0cb337780003b0",
    "src/addons/apathy/ActLong/COPYING": "e57f1c320b8cf8798a7d2ff83a6f9e06a33a03585f6e065fea97f1d86db84052",
    "src/addons/apathy/ActLong/Cron/Activity.php": "0c678ec758928ac9f2bbd0c3aaf08db408e31e4226b56642de9fafe87cc20e47",
    "src/addons/apathy/ActLong/icon.png": "9709e7d610b60bdfed27a0b0e38a4440703a945ea85bdef1b89227c12f32c2dd",
    "src/addons/apathy/ActLong/Listener.php": "c63c0de45950d904586c35862dc6038f4da8a77ed5fdfae370e7699c74568640",
    "src/addons/apathy/ActLong/Option/Meter.php": "a7e5e1eff28225575fa8820620f30159d0fd4b60cebdbf91b7c0d5611926b39e",
    "src/addons/apathy/ActLong/README.md": "987fbf9a08a33b600dc6618f5462e895c17b6cebce2eed035d9ede6af7d54b2d",
    "src/addons/apathy/ActLong/Setup.php": "5fdc677ef7be6ef7e61402d99ab362fd381c5f80548aba428001723f4d5854a2",
    "src/addons/apathy/ActLong/UW/FCS/Entity/Comment.php": "6d231dbed3c4fcf7cbaad1acbe5c6d13c75c10850fe6c9a74f7d4e4f9189c703",
    "src/addons/apathy/ActLong/XF/Entity/Post.php": "e8e5e4f921a6107973a7b2a01a0009657d1be96e4c9d1955f172b22670eb480f",
    "src/addons/apathy/ActLong/XF/Entity/User.php": "e4ac34fb36c364f20e7a94552d35f7e2d1561829f5e0777f34f912f62d138e9a",
    "src/addons/apathy/ActLong/_data/activity_summary_definitions.xml": "99d8c2563a31320d66f958fc8bda78613545f5f7959bb3cf5318805e3a3c39d2",
    "src/addons/apathy/ActLong/_data/admin_navigation.xml": "064ec797484ac00d5ee37367b50b06846d11f480d00550997712707f8fdac8c0",
    "src/addons/apathy/ActLong/_data/admin_permission.xml": "ec6fb97cebf0bceb24f1ed1d5778c1db54eeb7535fbb3e31d824840e7aa9ff87",
    "src/addons/apathy/ActLong/_data/advertising_positions.xml": "d2f7cbe844bb1df3cf878d22ff6306249245c8ff6b0b87b9b729744bec538261",
    "src/addons/apathy/ActLong/_data/api_scopes.xml": "6793eaf758f140e8137187ba20e65f4faccf53410433ae3ad7a8b3b38cb6b3b7",
    "src/addons/apathy/ActLong/_data/bb_codes.xml": "faa4ddd5f4a365e5ac39aebdcbe2d25aedf74e7eb9ea4a812766e2fd5e13bdb1",
    "src/addons/apathy/ActLong/_data/bb_code_media_sites.xml": "29762987990187b33e43cfb68c08dc917b2d3f0176613d78f8e6c453f82da3f3",
    "src/addons/apathy/ActLong/_data/class_extensions.xml": "764018848b17c1ba3818557d782a3ca87948cd39e58de7c3ec70feccd02e7468",
    "src/addons/apathy/ActLong/_data/code_events.xml": "8370dec3df47f91df4cf79da253446ad11b29f4ea568fe76c774e97a0379f0eb",
    "src/addons/apathy/ActLong/_data/code_event_listeners.xml": "e89210c6cddaba39cb5959fa408694c64ae7c98c239db9a4ce93f568ef13e342",
    "src/addons/apathy/ActLong/_data/content_type_fields.xml": "c7ad5472b28f465b7ac7617627707eba1b7a39d28089460d52e1ed292fc0b06a",
    "src/addons/apathy/ActLong/_data/cron.xml": "78a1117fc60ad92098f61d90e3b05e5ce7b1f43f2032c1c745936eeb1371cc93",
    "src/addons/apathy/ActLong/_data/help_pages.xml": "a8a0c0b06cdc550438bc8a8d385af3e1e5ab3459877dfb934c1c31be59c89163",
    "src/addons/apathy/ActLong/_data/member_stats.xml": "0ec8c1056fa778dfe5e54c8f2c6c752185dc548f17ce68f46ef01f2ca10a5019",
    "src/addons/apathy/ActLong/_data/navigation.xml": "f75e1c03a45a360bbdfcd0567121665082315068475d5b0feb8b1acbb1688651",
    "src/addons/apathy/ActLong/_data/options.xml": "c958c1befb1bfbe6665343fdf4d5e9a1f1b31a5ad1735f87468afe5f6c863e15",
    "src/addons/apathy/ActLong/_data/option_groups.xml": "9a46cf21b006f0c71804e354d71e52a676ce6caa94a31be272fa02a7d27a60c7",
    "src/addons/apathy/ActLong/_data/permissions.xml": "9b10d94a540f2436f8acf74ef8194619486a8b4bd4af1f0ac488d1416072472c",
    "src/addons/apathy/ActLong/_data/permission_interface_groups.xml": "3177224e96458b829aa7fb24866dda9e0455a4922aee3d669b53f59a1ffdf5d1",
    "src/addons/apathy/ActLong/_data/phrases.xml": "b9ac90073af953e52b77ff12543ce6ab7beb8b6261f46b718f4f5c410f85f868",
    "src/addons/apathy/ActLong/_data/routes.xml": "550fa64f9feedf137dd877b38c2684f94474619d2d83890dbb717a91b50da8f5",
    "src/addons/apathy/ActLong/_data/style_properties.xml": "0dc07f1cdd3d586134167d11b335e11d45406beafa25a83436d94458cff59166",
    "src/addons/apathy/ActLong/_data/style_property_groups.xml": "5cedc376cac503f9f4ac7370d22212367f29e0cb4a506b88c16aab21de4a4058",
    "src/addons/apathy/ActLong/_data/templates.xml": "242656477bda04eb1ee47d23c6bfd3b51c6d16f87322750dedd42b8995a8fb18",
    "src/addons/apathy/ActLong/_data/template_modifications.xml": "d90e8bf7a717593f7e49663ec2459808af795c9893ac85ede4bafe4aa4c14a16",
    "src/addons/apathy/ActLong/_data/widget_definitions.xml": "37e46965256430f24004c2e7f08ba08f9b0d1cbcc4d70e84b3f4e3ffb713e64b",
    "src/addons/apathy/ActLong/_data/widget_positions.xml": "a29cee66134f6bc5d75ed9df1eef21096c24401915c5b5c774389c3d7bb2d5b3"
}